code/Project_Implementation/SA3x3.vcd
$date
     Oct 08, 2025       07:16:30
$end

$version
 SystemC 3.0.2-Accellera --- Sep  7 2025 04:25:23
$end

$timescale
     1 ns
$end

$scope module SystemC $end
$var wire    1  aaaaa  clk       $end
$var wire    1  aaaab  reset       $end
$var wire    1  aaaac  output_stationary       $end
$var wire    1  aaaad  preload_valid       $end
$var real    1  aaaae  in_top_0       $end
$var real    1  aaaaf  in_left_0       $end
$var real    1  aaaag  out_right_0       $end
$var real    1  aaaah  out_bottom_0       $end
$var real    1  aaaai  in_top_1       $end
$var real    1  aaaaj  in_left_1       $end
$var real    1  aaaak  out_right_1       $end
$var real    1  aaaal  out_bottom_1       $end
$var real    1  aaaam  in_top_2       $end
$var real    1  aaaan  in_left_2       $end
$var real    1  aaaao  out_right_2       $end
$var real    1  aaaap  out_bottom_2       $end
$var real    1  aaaaq  in_top_3       $end
$var real    1  aaaar  in_left_3       $end
$var real    1  aaaas  out_right_3       $end
$var real    1  aaaat  out_bottom_3       $end
$var real    1  aaaau  preload_data_0       $end
$var real    1  aaaav  preload_data_1       $end
$var real    1  aaaaw  preload_data_2       $end
$var real    1  aaaax  preload_data_3       $end
$var real    1  aaaay  preload_data_4       $end
$var real    1  aaaaz  preload_data_5       $end
$var real    1  aaaba  preload_data_6       $end
$var real    1  aaabb  preload_data_7       $end
$var real    1  aaabc  preload_data_8       $end
$var real    1  aaabd  preload_data_9       $end
$var real    1  aaabe  preload_data_10       $end
$var real    1  aaabf  preload_data_11       $end
$var real    1  aaabg  preload_data_12       $end
$var real    1  aaabh  preload_data_13       $end
$var real    1  aaabi  preload_data_14       $end
$var real    1  aaabj  preload_data_15       $end
$upscope $end
$enddefinitions  $end

$comment
All initial values are dumped below at time 0 sec = 0 timescale units.
$end

$dumpvars
1aaaaa
1aaaab
0aaaac
0aaaad
r0 aaaae
r0 aaaaf
r0 aaaag
r0 aaaah
r0 aaaai
r0 aaaaj
r0 aaaak
r0 aaaal
r0 aaaam
r0 aaaan
r0 aaaao
r0 aaaap
r0 aaaaq
r0 aaaar
r0 aaaas
r0 aaaat
r0 aaaau
r0 aaaav
r0 aaaaw
r0 aaaax
r0 aaaay
r0 aaaaz
r0 aaaba
r0 aaabb
r0 aaabc
r0 aaabd
r0 aaabe
r0 aaabf
r0 aaabg
r0 aaabh
r0 aaabi
r0 aaabj
$end

#5
0aaaaa

#10
1aaaaa
0aaaab

#15
0aaaaa

#20
1aaaaa
1aaaad
r1 aaaau
r2 aaaav
r3 aaaaw
r4 aaaay
r5 aaaaz
r6 aaaba
r7 aaabc
r8 aaabd
r9 aaabe

#25
0aaaaa

#30
1aaaaa
0aaaad
r1 aaaaf

#35
0aaaaa

#40
1aaaaa
r4 aaaaf
r2 aaaaj

#45
0aaaaa

#50
1aaaaa
r7 aaaaf
r5 aaaaj
r3 aaaan

#55
0aaaaa

#60
1aaaaa
r0 aaaaf
r8 aaaaj
r6 aaaan

#65
0aaaaa

#70
1aaaaa
r1 aaaag
r30 aaaah
r0 aaaaj
r9 aaaan

#75
0aaaaa

#80
1aaaaa
r4 aaaag
r66 aaaah
r2 aaaak
r36 aaaal
r0 aaaan

#85
0aaaaa

#90
1aaaaa
r7 aaaag
r102 aaaah
r5 aaaak
r81 aaaal
r3 aaaao
r42 aaaap

#95
0aaaaa

#100
1aaaaa
r0 aaaag
r0 aaaah
r8 aaaak
r126 aaaal
r6 aaaao
r96 aaaap

#105
0aaaaa

#110
1aaaaa
r0 aaaak
r0 aaaal
r9 aaaao
r150 aaaap

#115
0aaaaa

#120
1aaaaa
r0 aaaao
r0 aaaap

#125
0aaaaa

#130
1aaaaa

#135
0aaaaa

#140
1aaaaa

#145
0aaaaa

#150
1aaaaa

#155
0aaaaa

#160
1aaaaa
1aaaac
1aaaad
r0 aaaau
r0 aaaav
r0 aaaaw
r0 aaaay
r0 aaaaz
r0 aaaba
r0 aaabc
r0 aaabd
r0 aaabe

#165
0aaaaa

#170
1aaaaa
0aaaad
r1 aaaae
r1 aaaaf

#175
0aaaaa

#180
1aaaaa
r4 aaaae
r2 aaaaf
r2 aaaai
r4 aaaaj

#185
0aaaaa

#190
1aaaaa
r7 aaaae
r3 aaaaf
r5 aaaai
r5 aaaaj
r3 aaaam
r7 aaaan

#195
0aaaaa

#200
1aaaaa
r0 aaaae
r0 aaaaf
r8 aaaai
r6 aaaaj
r6 aaaam
r8 aaaan

#205
0aaaaa

#210
1aaaaa
r1 aaaag
r1 aaaah
r0 aaaai
r0 aaaaj
r9 aaaam
r9 aaaan

#215
0aaaaa

#220
1aaaaa
r2 aaaag
r4 aaaah
r4 aaaak
r2 aaaal
r0 aaaam
r0 aaaan

#225
0aaaaa

#230
1aaaaa
r3 aaaag
r7 aaaah
r5 aaaak
r5 aaaal
r7 aaaao
r3 aaaap

#235
0aaaaa

#240
1aaaaa
r0 aaaag
r0 aaaah
r6 aaaak
r8 aaaal
r8 aaaao
r6 aaaap

#245
0aaaaa

#250
1aaaaa
r0 aaaak
r0 aaaal
r9 aaaao
r9 aaaap

#255
0aaaaa

#260
1aaaaa
r0 aaaao
r0 aaaap

