code/Project_Implementation/Verilog_Test/systolic_array_simple.vcd
$date
	Tue Dec  2 10:05:06 2025
$end
$version
	Icarus Verilog
$end
$timescale
	1s
$end
$scope module testbench_simple $end
$var wire 1 ! done $end
$var parameter 32 " ADDR_WIDTH $end
$var parameter 32 # M $end
$var parameter 32 $ MEM_SIZE $end
$var reg 16 % A_base_addr [15:0] $end
$var reg 16 & C_base_addr [15:0] $end
$var reg 8 ' K1 [7:0] $end
$var reg 8 ( K2 [7:0] $end
$var reg 8 ) K3 [7:0] $end
$var reg 16 * W_base_addr [15:0] $end
$var reg 1 + clk $end
$var reg 1 , output_stationary $end
$var reg 1 - reset $end
$var reg 1 . start $end
$var real 1 / diff $end
$var integer 32 0 errors [31:0] $end
$var integer 32 1 i [31:0] $end
$var integer 32 2 j [31:0] $end
$var integer 32 3 k [31:0] $end
$scope module dut $end
$var wire 16 4 A_base_addr [15:0] $end
$var wire 16 5 C_base_addr [15:0] $end
$var wire 8 6 K1 [7:0] $end
$var wire 8 7 K2 [7:0] $end
$var wire 8 8 K3 [7:0] $end
$var wire 16 9 W_base_addr [15:0] $end
$var wire 1 + clk $end
$var wire 1 , output_stationary $end
$var wire 1 - reset $end
$var wire 1 . start $end
$var wire 1 : mem_ready $end
$var wire 64 ; mem_read_data [63:0] $end
$var wire 1 < matmul_done $end
$var wire 576 = W_tile_flat [575:0] $end
$var wire 576 > C_tile_flat [575:0] $end
$var wire 576 ? A_tile_flat [575:0] $end
$var parameter 32 @ ADDR_WIDTH $end
$var parameter 4 A COMPUTE $end
$var parameter 4 B DONE_STATE $end
$var parameter 4 C IDLE $end
$var parameter 4 D INIT $end
$var parameter 32 E M $end
$var parameter 32 F MEM_SIZE $end
$var parameter 4 G NEXT_TILE $end
$var parameter 4 H READ_A $end
$var parameter 4 I READ_W $end
$var parameter 4 J WRITE_C $end
$var reg 16 K a_base_reg [15:0] $end
$var reg 8 L actual_i [7:0] $end
$var reg 8 M actual_j [7:0] $end
$var reg 8 N actual_k [7:0] $end
$var reg 16 O c_base_reg [15:0] $end
$var reg 1 P compute_started $end
$var reg 1 ! done $end
$var reg 8 Q i_tile [7:0] $end
$var reg 8 R j_tile [7:0] $end
$var reg 8 S k1_reg [7:0] $end
$var reg 8 T k2_reg [7:0] $end
$var reg 8 U k3_reg [7:0] $end
$var reg 8 V k_tile [7:0] $end
$var reg 1 W matmul_start $end
$var reg 16 X mem_address [15:0] $end
$var reg 16 Y mem_counter [15:0] $end
$var reg 1 Z mem_read_enable $end
$var reg 64 [ mem_write_data [63:0] $end
$var reg 1 \ mem_write_enable $end
$var reg 4 ] next_state [3:0] $end
$var reg 8 ^ num_i_tiles [7:0] $end
$var reg 8 _ num_j_tiles [7:0] $end
$var reg 8 ` num_k_tiles [7:0] $end
$var reg 4 a state [3:0] $end
$var reg 8 b tile_i [7:0] $end
$var reg 8 c tile_j [7:0] $end
$var reg 8 d tile_k1 [7:0] $end
$var reg 8 e tile_k2 [7:0] $end
$var reg 8 f tile_k3 [7:0] $end
$var reg 16 g w_base_reg [15:0] $end
$var integer 32 h idx [31:0] $end
$scope begin flatten_tiles[0] $end
$var parameter 2 i flat_idx $end
$upscope $end
$scope begin flatten_tiles[1] $end
$var parameter 2 j flat_idx $end
$upscope $end
$scope begin flatten_tiles[2] $end
$var parameter 3 k flat_idx $end
$upscope $end
$scope begin flatten_tiles[3] $end
$var parameter 3 l flat_idx $end
$upscope $end
$scope begin flatten_tiles[4] $end
$var parameter 4 m flat_idx $end
$upscope $end
$scope begin flatten_tiles[5] $end
$var parameter 4 n flat_idx $end
$upscope $end
$scope begin flatten_tiles[6] $end
$var parameter 4 o flat_idx $end
$upscope $end
$scope begin flatten_tiles[7] $end
$var parameter 4 p flat_idx $end
$upscope $end
$scope begin flatten_tiles[8] $end
$var parameter 5 q flat_idx $end
$upscope $end
$scope module matmul_ctrl $end
$var wire 576 r A_tile_flat [575:0] $end
$var wire 576 s W_tile_flat [575:0] $end
$var wire 1 + clk $end
$var wire 8 t k1 [7:0] $end
$var wire 8 u k2 [7:0] $end
$var wire 8 v k3 [7:0] $end
$var wire 1 , output_stationary $end
$var wire 1 - reset $end
$var wire 1 W start $end
$var wire 576 w sa_preload_data_flat [575:0] $end
$var wire 192 x sa_out_right_flat [191:0] $end
$var wire 192 y sa_out_bottom_flat [191:0] $end
$var wire 192 z sa_in_top_flat [191:0] $end
$var wire 192 { sa_in_left_flat [191:0] $end
$var wire 576 | C_tile_flat [575:0] $end
$var parameter 4 } IDLE $end
$var parameter 32 ~ M $end
$var parameter 32 !" N $end
$var parameter 4 "" OS_ACCUMULATE $end
$var parameter 4 #" OS_DONE $end
$var parameter 4 $" OS_DRAIN $end
$var parameter 4 %" OS_RESET $end
$var parameter 4 &" WS_COMPUTE $end
$var parameter 4 '" WS_DONE $end
$var parameter 4 (" WS_PRELOAD $end
$var reg 16 )" cycle_counter [15:0] $end
$var reg 1 < done $end
$var reg 4 *" next_state [3:0] $end
$var reg 1 +" sa_preload_valid $end
$var reg 1 ," sa_reset $end
$var reg 4 -" state [3:0] $end
$var reg 16 ." total_cycles [15:0] $end
$var integer 32 /" a_row [31:0] $end
$var integer 32 0" i [31:0] $end
$var integer 32 1" j [31:0] $end
$var integer 32 2" k_idx [31:0] $end
$var integer 32 3" k_val [31:0] $end
$var integer 32 4" r_out [31:0] $end
$scope begin pack_sa_left[0] $end
$var parameter 2 5" sa_idx $end
$upscope $end
$scope begin pack_sa_left[1] $end
$var parameter 2 6" sa_idx $end
$upscope $end
$scope begin pack_sa_left[2] $end
$var parameter 3 7" sa_idx $end
$upscope $end
$scope begin pack_sa_preload[0] $end
$var parameter 2 8" sa_idx $end
$upscope $end
$scope begin pack_sa_preload[1] $end
$var parameter 2 9" sa_idx $end
$upscope $end
$scope begin pack_sa_preload[2] $end
$var parameter 3 :" sa_idx $end
$upscope $end
$scope begin pack_sa_preload[3] $end
$var parameter 3 ;" sa_idx $end
$upscope $end
$scope begin pack_sa_preload[4] $end
$var parameter 4 <" sa_idx $end
$upscope $end
$scope begin pack_sa_preload[5] $end
$var parameter 4 =" sa_idx $end
$upscope $end
$scope begin pack_sa_preload[6] $end
$var parameter 4 >" sa_idx $end
$upscope $end
$scope begin pack_sa_preload[7] $end
$var parameter 4 ?" sa_idx $end
$upscope $end
$scope begin pack_sa_preload[8] $end
$var parameter 5 @" sa_idx $end
$upscope $end
$scope begin pack_sa_top[0] $end
$var parameter 2 A" sa_idx $end
$upscope $end
$scope begin pack_sa_top[1] $end
$var parameter 2 B" sa_idx $end
$upscope $end
$scope begin pack_sa_top[2] $end
$var parameter 3 C" sa_idx $end
$upscope $end
$scope begin unpack_tiles[0] $end
$var parameter 2 D" unpack_idx $end
$upscope $end
$scope begin unpack_tiles[1] $end
$var parameter 2 E" unpack_idx $end
$upscope $end
$scope begin unpack_tiles[2] $end
$var parameter 3 F" unpack_idx $end
$upscope $end
$scope begin unpack_tiles[3] $end
$var parameter 3 G" unpack_idx $end
$upscope $end
$scope begin unpack_tiles[4] $end
$var parameter 4 H" unpack_idx $end
$upscope $end
$scope begin unpack_tiles[5] $end
$var parameter 4 I" unpack_idx $end
$upscope $end
$scope begin unpack_tiles[6] $end
$var parameter 4 J" unpack_idx $end
$upscope $end
$scope begin unpack_tiles[7] $end
$var parameter 4 K" unpack_idx $end
$upscope $end
$scope begin unpack_tiles[8] $end
$var parameter 5 L" unpack_idx $end
$upscope $end
$scope module sa_inst $end
$var wire 1 + clk $end
$var wire 192 M" in_left [191:0] $end
$var wire 192 N" in_top [191:0] $end
$var wire 1 , output_stationary $end
$var wire 576 O" preload_data [575:0] $end
$var wire 1 +" preload_valid $end
$var wire 1 ," reset $end
$var wire 192 P" out_right [191:0] $end
$var wire 192 Q" out_bottom [191:0] $end
$var parameter 32 R" M $end
$var parameter 32 S" N $end
$scope begin pack_out_bottom[0] $end
$var parameter 2 T" i $end
$upscope $end
$scope begin pack_out_bottom[1] $end
$var parameter 2 U" i $end
$upscope $end
$scope begin pack_out_bottom[2] $end
$var parameter 3 V" i $end
$upscope $end
$scope begin pack_out_right[0] $end
$var parameter 2 W" i $end
$upscope $end
$scope begin pack_out_right[1] $end
$var parameter 2 X" i $end
$upscope $end
$scope begin pack_out_right[2] $end
$var parameter 3 Y" i $end
$upscope $end
$scope begin row_gen[0] $end
$var parameter 2 Z" row $end
$scope begin col_gen[0] $end
$var parameter 2 [" col $end
$scope begin genblk1 $end
$upscope $end
$scope begin genblk2 $end
$upscope $end
$scope module pe_inst $end
$var wire 1 + clk $end
$var wire 64 \" in_left [63:0] $end
$var wire 64 ]" in_top [63:0] $end
$var wire 1 , output_stationary $end
$var wire 64 ^" preload_data [63:0] $end
$var wire 1 +" preload_valid $end
$var wire 1 ," reset $end
$var reg 64 _" accumulator_buffer [63:0] $end
$var reg 1 `" drain_value_sent $end
$var reg 64 a" out_bottom [63:0] $end
$var reg 64 b" out_right [63:0] $end
$var reg 64 c" preload_buffer [63:0] $end
$var real 1 d" accumulator_real $end
$var real 1 e" in_left_real $end
$var real 1 f" in_top_real $end
$var real 1 g" preload_real $end
$var real 1 h" result_real $end
$upscope $end
$upscope $end
$scope begin col_gen[1] $end
$var parameter 2 i" col $end
$scope begin genblk1 $end
$upscope $end
$scope begin genblk2 $end
$upscope $end
$scope module pe_inst $end
$var wire 1 + clk $end
$var wire 64 j" in_left [63:0] $end
$var wire 64 k" in_top [63:0] $end
$var wire 1 , output_stationary $end
$var wire 64 l" preload_data [63:0] $end
$var wire 1 +" preload_valid $end
$var wire 1 ," reset $end
$var reg 64 m" accumulator_buffer [63:0] $end
$var reg 1 n" drain_value_sent $end
$var reg 64 o" out_bottom [63:0] $end
$var reg 64 p" out_right [63:0] $end
$var reg 64 q" preload_buffer [63:0] $end
$var real 1 r" accumulator_real $end
$var real 1 s" in_left_real $end
$var real 1 t" in_top_real $end
$var real 1 u" preload_real $end
$var real 1 v" result_real $end
$upscope $end
$upscope $end
$scope begin col_gen[2] $end
$var parameter 3 w" col $end
$scope begin genblk1 $end
$upscope $end
$scope begin genblk2 $end
$upscope $end
$scope begin genblk3 $end
$upscope $end
$scope module pe_inst $end
$var wire 1 + clk $end
$var wire 64 x" in_left [63:0] $end
$var wire 64 y" in_top [63:0] $end
$var wire 1 , output_stationary $end
$var wire 64 z" preload_data [63:0] $end
$var wire 1 +" preload_valid $end
$var wire 1 ," reset $end
$var reg 64 {" accumulator_buffer [63:0] $end
$var reg 1 |" drain_value_sent $end
$var reg 64 }" out_bottom [63:0] $end
$var reg 64 ~" out_right [63:0] $end
$var reg 64 !# preload_buffer [63:0] $end
$var real 1 "# accumulator_real $end
$var real 1 ## in_left_real $end
$var real 1 $# in_top_real $end
$var real 1 %# preload_real $end
$var real 1 &# result_real $end
$upscope $end
$upscope $end
$upscope $end
$scope begin row_gen[1] $end
$var parameter 2 '# row $end
$scope begin col_gen[0] $end
$var parameter 2 (# col $end
$scope begin genblk1 $end
$upscope $end
$scope begin genblk2 $end
$upscope $end
$scope module pe_inst $end
$var wire 1 + clk $end
$var wire 64 )# in_left [63:0] $end
$var wire 64 *# in_top [63:0] $end
$var wire 1 , output_stationary $end
$var wire 64 +# preload_data [63:0] $end
$var wire 1 +" preload_valid $end
$var wire 1 ," reset $end
$var reg 64 ,# accumulator_buffer [63:0] $end
$var reg 1 -# drain_value_sent $end
$var reg 64 .# out_bottom [63:0] $end
$var reg 64 /# out_right [63:0] $end
$var reg 64 0# preload_buffer [63:0] $end
$var real 1 1# accumulator_real $end
$var real 1 2# in_left_real $end
$var real 1 3# in_top_real $end
$var real 1 4# preload_real $end
$var real 1 5# result_real $end
$upscope $end
$upscope $end
$scope begin col_gen[1] $end
$var parameter 2 6# col $end
$scope begin genblk1 $end
$upscope $end
$scope begin genblk2 $end
$upscope $end
$scope module pe_inst $end
$var wire 1 + clk $end
$var wire 64 7# in_left [63:0] $end
$var wire 64 8# in_top [63:0] $end
$var wire 1 , output_stationary $end
$var wire 64 9# preload_data [63:0] $end
$var wire 1 +" preload_valid $end
$var wire 1 ," reset $end
$var reg 64 :# accumulator_buffer [63:0] $end
$var reg 1 ;# drain_value_sent $end
$var reg 64 <# out_bottom [63:0] $end
$var reg 64 =# out_right [63:0] $end
$var reg 64 ># preload_buffer [63:0] $end
$var real 1 ?# accumulator_real $end
$var real 1 @# in_left_real $end
$var real 1 A# in_top_real $end
$var real 1 B# preload_real $end
$var real 1 C# result_real $end
$upscope $end
$upscope $end
$scope begin col_gen[2] $end
$var parameter 3 D# col $end
$scope begin genblk1 $end
$upscope $end
$scope begin genblk2 $end
$upscope $end
$scope begin genblk3 $end
$upscope $end
$scope module pe_inst $end
$var wire 1 + clk $end
$var wire 64 E# in_left [63:0] $end
$var wire 64 F# in_top [63:0] $end
$var wire 1 , output_stationary $end
$var wire 64 G# preload_data [63:0] $end
$var wire 1 +" preload_valid $end
$var wire 1 ," reset $end
$var reg 64 H# accumulator_buffer [63:0] $end
$var reg 1 I# drain_value_sent $end
$var reg 64 J# out_bottom [63:0] $end
$var reg 64 K# out_right [63:0] $end
$var reg 64 L# preload_buffer [63:0] $end
$var real 1 M# accumulator_real $end
$var real 1 N# in_left_real $end
$var real 1 O# in_top_real $end
$var real 1 P# preload_real $end
$var real 1 Q# result_real $end
$upscope $end
$upscope $end
$upscope $end
$scope begin row_gen[2] $end
$var parameter 3 R# row $end
$scope begin col_gen[0] $end
$var parameter 2 S# col $end
$scope begin genblk1 $end
$upscope $end
$scope begin genblk2 $end
$upscope $end
$scope begin genblk4 $end
$upscope $end
$scope module pe_inst $end
$var wire 1 + clk $end
$var wire 64 T# in_left [63:0] $end
$var wire 64 U# in_top [63:0] $end
$var wire 1 , output_stationary $end
$var wire 64 V# preload_data [63:0] $end
$var wire 1 +" preload_valid $end
$var wire 1 ," reset $end
$var reg 64 W# accumulator_buffer [63:0] $end
$var reg 1 X# drain_value_sent $end
$var reg 64 Y# out_bottom [63:0] $end
$var reg 64 Z# out_right [63:0] $end
$var reg 64 [# preload_buffer [63:0] $end
$var real 1 \# accumulator_real $end
$var real 1 ]# in_left_real $end
$var real 1 ^# in_top_real $end
$var real 1 _# preload_real $end
$var real 1 `# result_real $end
$upscope $end
$upscope $end
$scope begin col_gen[1] $end
$var parameter 2 a# col $end
$scope begin genblk1 $end
$upscope $end
$scope begin genblk2 $end
$upscope $end
$scope begin genblk4 $end
$upscope $end
$scope module pe_inst $end
$var wire 1 + clk $end
$var wire 64 b# in_left [63:0] $end
$var wire 64 c# in_top [63:0] $end
$var wire 1 , output_stationary $end
$var wire 64 d# preload_data [63:0] $end
$var wire 1 +" preload_valid $end
$var wire 1 ," reset $end
$var reg 64 e# accumulator_buffer [63:0] $end
$var reg 1 f# drain_value_sent $end
$var reg 64 g# out_bottom [63:0] $end
$var reg 64 h# out_right [63:0] $end
$var reg 64 i# preload_buffer [63:0] $end
$var real 1 j# accumulator_real $end
$var real 1 k# in_left_real $end
$var real 1 l# in_top_real $end
$var real 1 m# preload_real $end
$var real 1 n# result_real $end
$upscope $end
$upscope $end
$scope begin col_gen[2] $end
$var parameter 3 o# col $end
$scope begin genblk1 $end
$upscope $end
$scope begin genblk2 $end
$upscope $end
$scope begin genblk3 $end
$upscope $end
$scope begin genblk4 $end
$upscope $end
$scope module pe_inst $end
$var wire 1 + clk $end
$var wire 64 p# in_left [63:0] $end
$var wire 64 q# in_top [63:0] $end
$var wire 1 , output_stationary $end
$var wire 64 r# preload_data [63:0] $end
$var wire 1 +" preload_valid $end
$var wire 1 ," reset $end
$var reg 64 s# accumulator_buffer [63:0] $end
$var reg 1 t# drain_value_sent $end
$var reg 64 u# out_bottom [63:0] $end
$var reg 64 v# out_right [63:0] $end
$var reg 64 w# preload_buffer [63:0] $end
$var real 1 x# accumulator_real $end
$var real 1 y# in_left_real $end
$var real 1 z# in_top_real $end
$var real 1 {# preload_real $end
$var real 1 |# result_real $end
$upscope $end
$upscope $end
$upscope $end
$scope begin unpack_in_left[0] $end
$var parameter 2 }# i $end
$upscope $end
$scope begin unpack_in_left[1] $end
$var parameter 2 ~# i $end
$upscope $end
$scope begin unpack_in_left[2] $end
$var parameter 3 !$ i $end
$upscope $end
$scope begin unpack_in_top[0] $end
$var parameter 2 "$ i $end
$upscope $end
$scope begin unpack_in_top[1] $end
$var parameter 2 #$ i $end
$upscope $end
$scope begin unpack_in_top[2] $end
$var parameter 3 $$ i $end
$upscope $end
$scope begin unpack_preload[0] $end
$var parameter 2 %$ i $end
$upscope $end
$scope begin unpack_preload[1] $end
$var parameter 2 &$ i $end
$upscope $end
$scope begin unpack_preload[2] $end
$var parameter 3 '$ i $end
$upscope $end
$scope begin unpack_preload[3] $end
$var parameter 3 ($ i $end
$upscope $end
$scope begin unpack_preload[4] $end
$var parameter 4 )$ i $end
$upscope $end
$scope begin unpack_preload[5] $end
$var parameter 4 *$ i $end
$upscope $end
$scope begin unpack_preload[6] $end
$var parameter 4 +$ i $end
$upscope $end
$scope begin unpack_preload[7] $end
$var parameter 4 ,$ i $end
$upscope $end
$scope begin unpack_preload[8] $end
$var parameter 5 -$ i $end
$upscope $end
$upscope $end
$upscope $end
$scope module memory_inst $end
$var wire 16 .$ address [15:0] $end
$var wire 1 + clk $end
$var wire 1 Z read_enable $end
$var wire 1 - reset $end
$var wire 64 /$ write_data [63:0] $end
$var wire 1 \ write_enable $end
$var parameter 32 0$ ADDR_WIDTH $end
$var parameter 32 1$ DATA_WIDTH $end
$var parameter 2 2$ IDLE $end
$var parameter 32 3$ MEM_SIZE $end
$var parameter 2 4$ READ $end
$var parameter 2 5$ WRITE $end
$var reg 2 6$ next_state [1:0] $end
$var reg 64 7$ read_data [63:0] $end
$var reg 1 : ready $end
$var reg 2 8$ state [1:0] $end
$var integer 32 9$ i [31:0] $end
$upscope $end
$upscope $end
$upscope $end
$enddefinitions $end
$comment Show the parameter values. $end
$dumpall
b10 5$
b1 4$
b10000000000000000 3$
b0 2$
b1000000 1$
b10000 0$
b1000 -$
b111 ,$
b110 +$
b101 *$
b100 )$
b11 ($
b10 '$
b1 &$
b0 %$
b10 $$
b1 #$
b0 "$
b10 !$
b1 ~#
b0 }#
b10 o#
b1 a#
b0 S#
b10 R#
b10 D#
b1 6#
b0 (#
b1 '#
b10 w"
b1 i"
b0 ["
b0 Z"
b10 Y"
b1 X"
b0 W"
b10 V"
b1 U"
b0 T"
b11 S"
b11 R"
b1000 L"
b111 K"
b110 J"
b101 I"
b100 H"
b11 G"
b10 F"
b1 E"
b0 D"
b10 C"
b1 B"
b0 A"
b1000 @"
b111 ?"
b110 >"
b101 ="
b100 <"
b11 ;"
b10 :"
b1 9"
b0 8"
b10 7"
b1 6"
b0 5"
b1 ("
b11 '"
b10 &"
b100 %"
b110 $"
b111 #"
b101 ""
b11 !"
b11 ~
b0 }
b1000 q
b111 p
b110 o
b101 n
b100 m
b11 l
b10 k
b1 j
b0 i
b101 J
b11 I
b10 H
b110 G
b10000000000000000 F
b11 E
b1 D
b0 C
b111 B
b100 A
b10000 @
b10000000000000000 $
b11 #
b10000 "
$end
#0
$dumpvars
b10000000000000 9$
b0 8$
b0 7$
b0 6$
b0 /$
b0 .$
r0 |#
r0 {#
r0 z#
r0 y#
r0 x#
b0 w#
b0 v#
b0 u#
0t#
b0 s#
b0 r#
b0 q#
b0 p#
r0 n#
r0 m#
r0 l#
r0 k#
r0 j#
b0 i#
b0 h#
b0 g#
0f#
b0 e#
b0 d#
b0 c#
b0 b#
r0 `#
r0 _#
r0 ^#
r0 ]#
r0 \#
b0 [#
b0 Z#
b0 Y#
0X#
b0 W#
b0 V#
b0 U#
b0 T#
r0 Q#
r0 P#
r0 O#
r0 N#
r0 M#
b0 L#
b0 K#
b0 J#
0I#
b0 H#
b0 G#
b0 F#
b0 E#
r0 C#
r0 B#
r0 A#
r0 @#
r0 ?#
b0 >#
b0 =#
b0 <#
0;#
b0 :#
b0 9#
b0 8#
b0 7#
r0 5#
r0 4#
r0 3#
r0 2#
r0 1#
b0 0#
b0 /#
b0 .#
0-#
b0 ,#
b0 +#
b0 *#
b0 )#
r0 &#
r0 %#
r0 $#
r0 ##
r0 "#
b0 !#
b0 ~"
b0 }"
0|"
b0 {"
b0 z"
b0 y"
b0 x"
r0 v"
r0 u"
r0 t"
r0 s"
r0 r"
b0 q"
b0 p"
b0 o"
0n"
b0 m"
b0 l"
b0 k"
b0 j"
r0 h"
r0 g"
r0 f"
r0 e"
r0 d"
b0 c"
b0 b"
b0 a"
0`"
b0 _"
b0 ^"
b0 ]"
b0 \"
b0 Q"
b0 P"
b0 O"
b0 N"
b0 M"
bx 4"
bx 3"
bx 2"
bx 1"
b1001 0"
bx /"
b0 ."
b0 -"
1,"
0+"
b0 *"
b0 )"
b0 |
b0 {
b0 z
b0 y
b0 x
b0 w
b0 v
b0 u
b0 t
b0 s
b0 r
b1001 h
b0 g
b0 f
b0 e
b0 d
b0 c
b0 b
b0 a
b0 `
b0 _
b0 ^
b0 ]
0\
b0 [
0Z
b0 Y
b0 X
0W
b0 V
b0 U
b0 T
b0 S
b0 R
b0 Q
0P
b0 O
b0 N
b0 M
b0 L
b0 K
b0 ?
b0 >
b0 =
0<
b0 ;
0:
b0 9
b0 8
b0 7
b0 6
b0 5
b0 4
bx 3
bx 2
bx 1
bx 0
r0 /
0.
1-
0,
0+
b0 *
b0 )
b0 (
b0 '
b0 &
b0 %
0!
$end
#5
b1001 h
b1001 0"
1+
#10
0+
#15
b1001 0"
b1001 h
1+
#20
0+
0-
#25
0,"
1+
#30
0+
#35
1+
#40
0+
b11 )
b11 8
b11 (
b11 7
b11 '
b11 6
b10000000000 &
b10000000000 5
b1000000000 *
b1000000000 9
b11 3
b11 2
b11 1
#45
1+
#50
0+
#55
1+
#60
b1 ]
0+
1.
#65
b10 ]
b1 `
b1 _
b1 ^
b10000000000 O
b1000000000 g
b11 U
b11 T
b11 S
b1 a
1+
#70
b10 ]
0+
0.
#75
b10 a
b11 M
b11 N
b11 L
1+
#80
0+
#85
b1 6$
1Z
1+
#90
0+
#95
b0 6$
b1 8$
1+
#100
0+
#105
b1 6$
1:
b11111111110000000000000000000000000000000000000000000000000000 ;
b11111111110000000000000000000000000000000000000000000000000000 7$
b0 8$
1+
#110
0+
#115
b0 6$
b1 8$
0:
0Z
b1 Y
b11111111110000000000000000000000000000000000000000000000000000 ?
b11111111110000000000000000000000000000000000000000000000000000 r
1+
#120
0+
#125
b1 6$
1Z
b1000 X
b1000 .$
b1 c
1:
b0 8$
1+
#130
0+
#135
b0 6$
b1 8$
0:
0Z
b10 Y
b111111111100000000000000000000000000000000000000000000000000000011111111110000000000000000000000000000000000000000000000000000 ?
b111111111100000000000000000000000000000000000000000000000000000011111111110000000000000000000000000000000000000000000000000000 r
1+
#140
0+
#145
b1 6$
1Z
b10000 X
b10000 .$
b10 c
1:
b100000000000000000000000000000000000000000000000000000000000000 ;
b100000000000000000000000000000000000000000000000000000000000000 7$
b0 8$
1+
#150
0+
#155
b0 6$
b1 8$
0:
0Z
b11 Y
b10000000000000000000000000000000000000000000000000000000000000000111111111100000000000000000000000000000000000000000000000000000011111111110000000000000000000000000000000000000000000000000000 ?
b10000000000000000000000000000000000000000000000000000000000000000111111111100000000000000000000000000000000000000000000000000000011111111110000000000000000000000000000000000000000000000000000 r
1+
#160
0+
#165
b1 6$
1Z
b11000 X
b11000 .$
b0 c
b1 b
1:
b100000000001000000000000000000000000000000000000000000000000000 ;
b100000000001000000000000000000000000000000000000000000000000000 7$
b0 8$
1+
#170
0+
#175
b0 6$
b1 8$
0:
0Z
b100 Y
b100000000001000000000000000000000000000000000000000000000000000010000000000000000000000000000000000000000000000000000000000000000111111111100000000000000000000000000000000000000000000000000000011111111110000000000000000000000000000000000000000000000000000 ?
b100000000001000000000000000000000000000000000000000000000000000010000000000000000000000000000000000000000000000000000000000000000111111111100000000000000000000000000000000000000000000000000000011111111110000000000000000000000000000000000000000000000000000 r
1+
#180
0+
#185
b1 6$
1Z
b100000 X
b100000 .$
b1 c
1:
b100000000010000000000000000000000000000000000000000000000000000 ;
b100000000010000000000000000000000000000000000000000000000000000 7$
b0 8$
1+
#190
0+
#195
b0 6$
b1 8$
0:
0Z
b101 Y
b1000000000100000000000000000000000000000000000000000000000000000100000000001000000000000000000000000000000000000000000000000000010000000000000000000000000000000000000000000000000000000000000000111111111100000000000000000000000000000000000000000000000000000011111111110000000000000000000000000000000000000000000000000000 ?
b1000000000100000000000000000000000000000000000000000000000000000100000000001000000000000000000000000000000000000000000000000000010000000000000000000000000000000000000000000000000000000000000000111111111100000000000000000000000000000000000000000000000000000011111111110000000000000000000000000000000000000000000000000000 r
1+
#200
0+
#205
b1 6$
1Z
b101000 X
b101000 .$
b10 c
1:
b100000000010100000000000000000000000000000000000000000000000000 ;
b100000000010100000000000000000000000000000000000000000000000000 7$
b0 8$
1+
#210
0+
#215
b0 6$
b1 8$
0:
0Z
b110 Y
b10000000001010000000000000000000000000000000000000000000000000001000000000100000000000000000000000000000000000000000000000000000100000000001000000000000000000000000000000000000000000000000000010000000000000000000000000000000000000000000000000000000000000000111111111100000000000000000000000000000000000000000000000000000011111111110000000000000000000000000000000000000000000000000000 ?
b10000000001010000000000000000000000000000000000000000000000000001000000000100000000000000000000000000000000000000000000000000000100000000001000000000000000000000000000000000000000000000000000010000000000000000000000000000000000000000000000000000000000000000111111111100000000000000000000000000000000000000000000000000000011111111110000000000000000000000000000000000000000000000000000 r
1+
#220
0+
#225
b1 6$
1Z
b110000 X
b110000 .$
b0 c
b10 b
1:
b100000000011000000000000000000000000000000000000000000000000000 ;
b100000000011000000000000000000000000000000000000000000000000000 7$
b0 8$
1+
#230
0+
#235
b0 6$
b1 8$
0:
0Z
b111 Y
b100000000011000000000000000000000000000000000000000000000000000010000000001010000000000000000000000000000000000000000000000000001000000000100000000000000000000000000000000000000000000000000000100000000001000000000000000000000000000000000000000000000000000010000000000000000000000000000000000000000000000000000000000000000111111111100000000000000000000000000000000000000000000000000000011111111110000000000000000000000000000000000000000000000000000 ?
b100000000011000000000000000000000000000000000000000000000000000010000000001010000000000000000000000000000000000000000000000000001000000000100000000000000000000000000000000000000000000000000000100000000001000000000000000000000000000000000000000000000000000010000000000000000000000000000000000000000000000000000000000000000111111111100000000000000000000000000000000000000000000000000000011111111110000000000000000000000000000000000000000000000000000 r
1+
#240
0+
#245
b1 6$
1Z
b111000 X
b111000 .$
b1 c
1:
b100000000011100000000000000000000000000000000000000000000000000 ;
b100000000011100000000000000000000000000000000000000000000000000 7$
b0 8$
1+
#250
0+
#255
b0 6$
b1 8$
0:
0Z
b1000 Y
b1000000000111000000000000000000000000000000000000000000000000000100000000011000000000000000000000000000000000000000000000000000010000000001010000000000000000000000000000000000000000000000000001000000000100000000000000000000000000000000000000000000000000000100000000001000000000000000000000000000000000000000000000000000010000000000000000000000000000000000000000000000000000000000000000111111111100000000000000000000000000000000000000000000000000000011111111110000000000000000000000000000000000000000000000000000 ?
b1000000000111000000000000000000000000000000000000000000000000000100000000011000000000000000000000000000000000000000000000000000010000000001010000000000000000000000000000000000000000000000000001000000000100000000000000000000000000000000000000000000000000000100000000001000000000000000000000000000000000000000000000000000010000000000000000000000000000000000000000000000000000000000000000111111111100000000000000000000000000000000000000000000000000000011111111110000000000000000000000000000000000000000000000000000 r
1+
#260
0+
#265
b1 6$
1Z
b1000000 X
b1000000 .$
b10 c
1:
b100000000100000000000000000000000000000000000000000000000000000 ;
b100000000100000000000000000000000000000000000000000000000000000 7$
b0 8$
1+
#270
0+
#275
b0 6$
b11 ]
b1 8$
0:
0Z
b1001 Y
b10000000010000000000000000000000000000000000000000000000000000001000000000111000000000000000000000000000000000000000000000000000100000000011000000000000000000000000000000000000000000000000000010000000001010000000000000000000000000000000000000000000000000001000000000100000000000000000000000000000000000000000000000000000100000000001000000000000000000000000000000000000000000000000000010000000000000000000000000000000000000000000000000000000000000000111111111100000000000000000000000000000000000000000000000000000011111111110000000000000000000000000000000000000000000000000000 ?
b10000000010000000000000000000000000000000000000000000000000000001000000000111000000000000000000000000000000000000000000000000000100000000011000000000000000000000000000000000000000000000000000010000000001010000000000000000000000000000000000000000000000000001000000000100000000000000000000000000000000000000000000000000000100000000001000000000000000000000000000000000000000000000000000010000000000000000000000000000000000000000000000000000000000000000111111111100000000000000000000000000000000000000000000000000000011111111110000000000000000000000000000000000000000000000000000 r
1+
#280
0+
#285
b0 Y
b11 a
1:
b100000000100010000000000000000000000000000000000000000000000000 ;
b100000000100010000000000000000000000000000000000000000000000000 7$
b0 8$
1+
#290
0+
#295
0:
b1 Y
b100000000100010000000000000000000000000000000000000000000000000 =
b100000000100010000000000000000000000000000000000000000000000000 s
0Z
b1000000000 X
b1000000000 .$
b0 c
b0 b
1+
#300
0+
#305
b1 6$
1Z
b1000001000 X
b1000001000 .$
b1 c
1+
#310
0+
#315
b0 6$
b1 8$
1+
#320
0+
#325
b1 6$
1:
b0 ;
b0 7$
b0 8$
1+
#330
0+
#335
b0 6$
b1 8$
0:
0Z
b10 Y
1+
#340
0+
#345
b1 6$
1Z
b1000010000 X
b1000010000 .$
b10 c
1:
b0 8$
1+
#350
0+
#355
b0 6$
b1 8$
0:
0Z
b11 Y
1+
#360
0+
#365
b1 6$
1Z
b1000011000 X
b1000011000 .$
b0 c
b1 b
1:
b0 8$
1+
#370
0+
#375
b0 6$
b1 8$
0:
0Z
b100 Y
1+
#380
0+
#385
b1 6$
1Z
b1000100000 X
b1000100000 .$
b1 c
1:
b0 8$
1+
#390
0+
#395
b0 6$
b1 8$
0:
0Z
b101 Y
1+
#400
0+
