code/Project_Implementation/Phase5/SA_with_L1_tb.vcd
$date
     Oct 31, 2025       18:57:38
$end

$version
 SystemC 3.0.2-Accellera --- Oct 31 2025 14:39:38
$end

$timescale
     1 ns
$end

$scope module SystemC $end
$var wire    1  aaaaa  clk       $end
$var wire    1  aaaab  reset       $end
$var wire    1  aaaac  start       $end
$var wire    1  aaaad  done       $end
$var wire   32  aaaae  K1 [31:0]  $end
$var wire   32  aaaaf  K2 [31:0]  $end
$var wire   32  aaaag  K3 [31:0]  $end
$var wire   32  aaaah  A_base_in [31:0]  $end
$var wire   32  aaaai  W_base_in [31:0]  $end
$var wire   32  aaaaj  C_base_in [31:0]  $end
$var wire    1  aaaak  sa_output_stationary_in       $end
$scope module system $end
$var wire   32  aaaal  mem_addr_top_0 [31:0]  $end
$var real    1  aaaam  mem_data_top_0       $end
$var wire   32  aaaan  mem_write_addr_0 [31:0]  $end
$var wire    1  aaaao  mem_write_en_0       $end
$var real    1  aaaap  sa_to_l1_bottom_data_0       $end
$var wire   32  aaaaq  mem_addr_top_1 [31:0]  $end
$var real    1  aaaar  mem_data_top_1       $end
$var wire   32  aaaas  mem_write_addr_1 [31:0]  $end
$var wire    1  aaaat  mem_write_en_1       $end
$var real    1  aaaau  sa_to_l1_bottom_data_1       $end
$var wire   32  aaaav  mem_addr_top_2 [31:0]  $end
$var real    1  aaaaw  mem_data_top_2       $end
$var wire   32  aaaax  mem_write_addr_2 [31:0]  $end
$var wire    1  aaaay  mem_write_en_2       $end
$var real    1  aaaaz  sa_to_l1_bottom_data_2       $end
$var wire   32  aaaba  mem_addr_top_3 [31:0]  $end
$var real    1  aaabb  mem_data_top_3       $end
$var wire   32  aaabc  mem_write_addr_3 [31:0]  $end
$var wire    1  aaabd  mem_write_en_3       $end
$var real    1  aaabe  sa_to_l1_bottom_data_3       $end
$var wire   32  aaabf  mem_addr_top_4 [31:0]  $end
$var real    1  aaabg  mem_data_top_4       $end
$var wire   32  aaabh  mem_write_addr_4 [31:0]  $end
$var wire    1  aaabi  mem_write_en_4       $end
$var real    1  aaabj  sa_to_l1_bottom_data_4       $end
$var wire   32  aaabk  mem_addr_left_0 [31:0]  $end
$var real    1  aaabl  mem_data_left_0       $end
$var wire   32  aaabm  mem_addr_left_1 [31:0]  $end
$var real    1  aaabn  mem_data_left_1       $end
$var wire   32  aaabo  mem_addr_left_2 [31:0]  $end
$var real    1  aaabp  mem_data_left_2       $end
$var wire   32  aaabq  mem_addr_left_3 [31:0]  $end
$var real    1  aaabr  mem_data_left_3       $end
$var wire   32  aaabs  mem_addr_left_4 [31:0]  $end
$var real    1  aaabt  mem_data_left_4       $end
$scope module controller $end
$scope module sa_grid $end
$scope module PE_0_0 $end
$var real    1  aaabu  accumulator_buffer       $end
$var real    1  aaabv  out_bottom       $end
$var real    1  aaabw  out_right       $end
$var real    1  aaabx  in_left       $end
$var real    1  aaaby  in_top       $end
$upscope $end
$upscope $end
$upscope $end
$upscope $end
$upscope $end
$enddefinitions  $end

$comment
All initial values are dumped below at time 0 sec = 0 timescale units.
$end

$dumpvars
1aaaaa
1aaaab
0aaaac
0aaaad
b0 aaaae
b0 aaaaf
b0 aaaag
b0 aaaah
b0 aaaai
b0 aaaaj
0aaaak
b11111111111111111111111111111111 aaaal
r0 aaaam
b11111111111111111111111111111111 aaaan
0aaaao
r0 aaaap
b11111111111111111111111111111111 aaaaq
r0 aaaar
b11111111111111111111111111111111 aaaas
0aaaat
r0 aaaau
b11111111111111111111111111111111 aaaav
r0 aaaaw
b11111111111111111111111111111111 aaaax
0aaaay
r0 aaaaz
b11111111111111111111111111111111 aaaba
r0 aaabb
b11111111111111111111111111111111 aaabc
0aaabd
r0 aaabe
b11111111111111111111111111111111 aaabf
r0 aaabg
b11111111111111111111111111111111 aaabh
0aaabi
r0 aaabj
b11111111111111111111111111111111 aaabk
r0 aaabl
b11111111111111111111111111111111 aaabm
r0 aaabn
b11111111111111111111111111111111 aaabo
r0 aaabp
b11111111111111111111111111111111 aaabq
r0 aaabr
b11111111111111111111111111111111 aaabs
r0 aaabt
r1 aaabu
r1 aaabv
r1 aaabw
r0 aaabx
r0 aaaby
$end

#5
0aaaaa

#10
1aaaaa
r0 aaabu
r0 aaabv
r0 aaabw

#15
0aaaaa

#20
1aaaaa
0aaaab

#25
0aaaaa

#30
1aaaaa
b101 aaaae
b101 aaaaf
b101 aaaag
b100111000100000 aaaai
b1001110001000000 aaaaj

#35
0aaaaa

#40
1aaaaa
1aaaac

#45
0aaaaa

#50
1aaaaa
0aaaac
b100111000100000 aaaal
b100111000100001 aaaaq
b100111000100010 aaaav
b100111000100011 aaaba
b100111000100100 aaabf

#55
0aaaaa

#60
1aaaaa
b100111000100101 aaaal
b100111000100110 aaaaq
b100111000100111 aaaav
b100111000101000 aaaba
b100111000101001 aaabf

#65
0aaaaa

#70
1aaaaa
b100111000101010 aaaal
b100111000101011 aaaaq
b100111000101100 aaaav
b100111000101101 aaaba
b100111000101110 aaabf

#75
0aaaaa

#80
1aaaaa
b100111000101111 aaaal
b100111000110000 aaaaq
b100111000110001 aaaav
b100111000110010 aaaba
b100111000110011 aaabf

#85
0aaaaa

#90
1aaaaa
b100111000110100 aaaal
b100111000110101 aaaaq
b100111000110110 aaaav
b100111000110111 aaaba
b100111000111000 aaabf

#95
0aaaaa

#100
1aaaaa

#105
0aaaaa

#110
1aaaaa
b11111111111111111111111111111111 aaaal
b11111111111111111111111111111111 aaaaq
b11111111111111111111111111111111 aaaav
b11111111111111111111111111111111 aaaba
b11111111111111111111111111111111 aaabf
b0 aaabk
r1 aaabl
r1 aaabx

#115
0aaaaa

#120
1aaaaa
b101 aaabk
r2 aaabl
b1 aaabm
r1 aaabn
r1 aaabw
r2 aaabx

#125
0aaaaa

#130
1aaaaa
b1010 aaabk
r3 aaabl
b110 aaabm
r2 aaabn
b10 aaabo
r1 aaabp
r2 aaabw
r3 aaabx

#135
0aaaaa

#140
1aaaaa
b1111 aaabk
r4 aaabl
b1011 aaabm
r3 aaabn
b111 aaabo
r2 aaabp
b11 aaabq
r1 aaabr
r3 aaabw
r4 aaabx

#145
0aaaaa

#150
1aaaaa
b10100 aaabk
r5 aaabl
b10000 aaabm
r4 aaabn
b1100 aaabo
r3 aaabp
b1000 aaabq
r2 aaabr
b100 aaabs
r1 aaabt
r4 aaabw
r5 aaabx

#155
0aaaaa

#160
1aaaaa
b11111111111111111111111111111111 aaabk
r0 aaabl
b10101 aaabm
r5 aaabn
b10001 aaabo
r4 aaabp
b1101 aaabq
r3 aaabr
b1001 aaabs
r2 aaabt
r5 aaabw
r0 aaabx

#165
0aaaaa

#170
1aaaaa
b1001110001000000 aaaan
1aaaao
b11111111111111111111111111111111 aaabm
r0 aaabn
b10110 aaabo
r5 aaabp
b10010 aaabq
r4 aaabr
b1110 aaabs
r3 aaabt
r0 aaabw

#175
0aaaaa

#180
1aaaaa
b1001110001000101 aaaan
b1001110001000001 aaaas
1aaaat
b11111111111111111111111111111111 aaabo
r0 aaabp
b10111 aaabq
r5 aaabr
b10011 aaabs
r4 aaabt

#185
0aaaaa

#190
1aaaaa
b1001110001001010 aaaan
b1001110001000110 aaaas
b1001110001000010 aaaax
1aaaay
b11111111111111111111111111111111 aaabq
r0 aaabr
b11000 aaabs
r5 aaabt

#195
0aaaaa

#200
1aaaaa
b1001110001001111 aaaan
b1001110001001011 aaaas
b1001110001000111 aaaax
b1001110001000011 aaabc
1aaabd
b11111111111111111111111111111111 aaabs
r0 aaabt

#205
0aaaaa

#210
1aaaaa
b1001110001010100 aaaan
b1001110001010000 aaaas
b1001110001001100 aaaax
b1001110001001000 aaabc
b1001110001000100 aaabh
1aaabi

#215
0aaaaa

#220
1aaaaa
b11111111111111111111111111111111 aaaan
0aaaao
b1001110001010101 aaaas
b1001110001010001 aaaax
b1001110001001101 aaabc
b1001110001001001 aaabh

#225
0aaaaa

#230
1aaaaa
b11111111111111111111111111111111 aaaas
0aaaat
b1001110001010110 aaaax
b1001110001010010 aaabc
b1001110001001110 aaabh

#235
0aaaaa

#240
1aaaaa
b11111111111111111111111111111111 aaaax
0aaaay
b1001110001010111 aaabc
b1001110001010011 aaabh

#245
0aaaaa

#250
1aaaaa
b11111111111111111111111111111111 aaabc
0aaabd
b1001110001011000 aaabh

#255
0aaaaa

#260
1aaaaa
1aaaad
0aaabi

